601991051,1
658079151,1
605250251,1
662657851,1
663090551,0.91
601978551,1
601990151,1
662584651,1
601989851,1
601990751,0.77
610834751,0.45
670905551,1
664917151,1
601989351,0.83
714338451,1
604114051,0.67
601989251,1
604113851,1
601989651,1
658078951,1
601990351,0.59
658078751,1
664259051,1
601989551,1
662584551,1
712982251,1
699159751,1
651383151,1
604113551,0.5
682475751,1
670905251,1
390983751,1
601989051,0.71
601990951,0.63
384285451,0.67
601990051,0.83
601990451,1
652885751,1
685784751,1
340716451,1
643262251,1
601978251,0.83
607423051,1
601269151,0.59
695964151,1
601988951,0.91
601978451,1
675302151,0.77
601990551,0.83
604114151,1
664589251,1
675302551,0.77
670905451,1
604114251,1
601989451,1
604113951,1
607420951,1
662584451,1
601989751,0.67
601990251,1
604113451,1
682475651,1
658079251,1
601989151,1
697858651,0.5
658079651,1
670905351,1
604114451,1
601990651,0.67
601990851,1
675788751,1
601989951,0.91
675302651,0.71
699872351,1
712980751,1
349592051,1
714338351,1
652055851,0.83
653811151,1
604123551,1
601269351,1
658079451,1
682475951,1
601269451,1
600451251,0.59
601978351,0.91
600648151,1
717410251,0.91
603775051,1
